<?xml version="1.0" encoding="utf-8"?>
<!-- Generator: Adobe Illustrator 21.0.0, SVG Export Plug-In . SVG Version: 6.00 Build 0)  -->
<svg version="1.1" id="Layer_1" xmlns="http://www.w3.org/2000/svg" xmlns:xlink="http://www.w3.org/1999/xlink" x="0px" y="0px"
	 viewBox="0 0 1000 1000" style="enable-background:new 0 0 1000 1000;" xml:space="preserve">
<style type="text/css">
	.st0{fill:#757885;}
</style>
<g>
	<path class="st0" d="M645.8,592c0.8-0.9,1.3-1.3,1.6-1.7c12.1-16.5,21.1-34.4,26.7-54.1c3.1-10.7,11.8-17.3,22.6-17
		c9.6,0.2,18.2,7.1,20.9,16.3c1.5,5.2,0.3,10.1-1.2,15c-6,19.6-14.4,38-25.6,55.2c-20.8,32-48.4,56.6-81.8,74.7
		c-12.8,6.9-26.1,12.4-39.9,16.7c-11.8,3.7-23.8,6.3-36.1,8.1c-13.9,2-27.9,3-41.9,2.3c-9.8-0.5-19.5-1.8-29.2-3.1
		c-11-1.5-21.7-4.3-32.2-7.7c-18.6-5.9-36.2-14-52.7-24.4c-36.1-23-63.8-53.6-82.2-92.4c-5.1-10.8-9.1-22-12.4-33.4
		c-3.1-10.8,4-22.1,13.2-25.5c13.6-5,26.7,2.2,30.5,16.3c4.2,15.3,10.8,29.5,19.4,42.9c0.3,0.5,0.8,0.9,1.2,1.4
		c0.2,0,0.4-0.1,0.6-0.1c0-0.9,0-1.8,0-2.6c0-19.1,0.2-38.2-0.1-57.4c-0.2-16,3.2-31.1,10.9-45.2c0.1-0.2,0.2-0.5,0.4-1.1
		c-0.9-0.1-1.6-0.2-2.3-0.2c-5.2,0-10.4,0-15.6,0c-13.9-0.1-25-8.2-28.8-21.5c-4.1-14.2,3.7-29.5,17.7-34.8c3.9-1.5,8-1.9,12.1-1.9
		c52,0,103.9,0,155.9,0c2.8,0,2.8-0.1,2.7-2.9c-0.6-12.5,0.3-24.8,3-37c6.8-30.4,22.4-55.6,46.4-75.4c12.9-10.6,27.3-18.5,43.3-23.6
		c9.4-3,19-5.3,28.9-5.9c7.3-0.4,14.7-1.1,21.9-0.5c26.3,2,50.2,10.6,71.4,26.4c2.1,1.6,3.5,3.7,3.3,6.5c-0.1,2.3,0,4.7,0,7
		c0,9.1-7.9,17.3-17,17.9c-7.2,0.4-9.8,3.9-8.4,11c2.6,12.7,5.1,25.3,7.6,38c1.9,9.2,3.9,18.5,5.6,27.7c2.3,13.2-4.6,25.9-17.2,30.7
		c-13.5,5.1-27.1-0.1-34.4-12.5c-2.8-4.8-5.6-9.7-8.6-14.4c-2.3-3.7-5.9-5.1-10.3-4.6c-4,0.5-6.6,2.7-8.2,6.3
		c-1.3,2.9-0.6,5.9,0,8.8c1.6,8.1,3.2,16.3,4.9,24.4c1.6,7.8,3.2,15.6,4.8,23.4c1.8,9.2,3.6,18.4,5.5,27.6c0.8,4.1,1.9,8.2,2.4,12.3
		c0.5,4.3,0.7,8.6,0.7,12.9c0.1,22.9,0,45.8,0,68.7C645.6,589.8,645.7,590.6,645.8,592z M361.7,558c0,15.2,0,30.4,0,45.6
		c0,3.5-1.9,6.5-4.7,7.5c-3.1,1.1-6.2,0.3-8.6-2.5c-16.8-19.8-28.9-42.1-36.2-67.1c-1-3.5-2.3-6.6-6.3-7.6c-2.9-0.7-5.5,0-7.6,2.1
		c-1.8,1.8-2.8,4-1.9,6.6c1.5,4.8,3,9.6,4.7,14.3c8,22.4,19.8,42.7,35.2,60.8c27.6,32.4,62,54.5,102.8,66.6
		c14.9,4.4,30.1,6.9,45.6,8.1c24.9,1.8,49.2-0.8,73.2-7.3c14.2-3.8,27.8-9.2,40.9-15.9c26-13.5,48.4-31.4,67-54
		c17.3-21.3,29.7-45.2,37.4-71.5c1.2-4.1-0.9-8.2-4.8-9.3c-4.7-1.3-8.7,0.7-10,5.2c-0.8,2.9-1.7,5.7-2.7,8.5
		c-6.3,18.2-14.9,35.3-26.5,50.7c-4.9,6.5-10.3,12.6-15.8,18.7c-3.5,3.9-9.4,2.9-11.5-1.7c-0.7-1.5-0.8-3.4-0.8-5.2
		c-0.1-30.8,0-61.6-0.1-92.3c0-4-0.6-7.9-1.2-11.8c-0.7-4.8-1.8-9.6-2.7-14.4c-1.5-7.7-3-15.3-4.6-22.9c-1.6-7.7-3.2-15.4-4.7-23.1
		c-1.6-8.1-3.2-16.1-4.9-24.2c-1.1-5.3-1.2-10.6,0.9-15.7c3.7-8.9,10.3-14.4,19.9-15.6c10.7-1.3,19.2,2.8,25,12
		c3,4.7,5.8,9.6,8.6,14.4c3.4,5.7,9.9,8.3,15.5,6.4c6.7-2.4,10.2-8,9-15c-1-6.2-2.4-12.2-3.6-18.4c-1.6-8-3.2-16-4.8-24
		c-1.5-7.7-2.8-15.5-4.7-23.1c-3.5-14.4,5.9-27.4,20.7-28.1c2.2-0.1,3.7-1,4.3-3.1c0.8-2.4,0.2-4.1-1.9-5.5
		c-15.7-10.6-33-17-51.7-19.5c-17.2-2.3-34.2-0.8-50.8,4.3c-17,5.2-32.2,13.8-45.3,25.8c-20.8,19.1-33.5,42.6-38,70.5
		c-1.9,11.7-1.9,23.5-0.4,35.2c0.2,1.3-0.2,2.7-0.4,4c-0.2,1.4-0.7,2.7-0.7,4.1c-0.1,14.6,0,29.1-0.1,43.7c0,12.8-9.2,22.3-22,22.4
		c-24.1,0.1-48.2,0-72.3,0c-3.7,0-7.3-0.7-10.6-2.6c-7.9-4.6-11.5-11.5-11.5-20.6c0.1-13.1,0-26.3,0.1-39.4c0-2-0.5-2.8-2.6-2.7
		c-10.9,0.1-21.7,0-32.6,0c-8.3,0-16.6-0.2-24.9,0.2c-8,0.3-14.3,9.2-12.4,16.9c1.9,7.6,7.3,12,15.2,12c10.4,0,20.8,0,31.1,0
		c4,0,6.5,1.6,7.6,5c1,3-0.1,5.5-2,7.9c-10.4,13.3-15.8,28.4-15.7,45.3C361.8,531.6,361.7,544.8,361.7,558z M456.4,431.1
		C456.4,431,456.4,431,456.4,431.1c-13.8,0-27.6,0-41.4,0c-1.7,0-2.4,0.4-2.4,2.2c0.1,13.6,0,27.1,0.1,40.7c0,5.1,2.9,7.9,8,7.9
		c23.7,0,47.5,0,71.2,0c5.3,0,8.1-2.9,8.1-8.2c0-13.4,0-26.7,0.1-40.1c0-2.1-0.7-2.6-2.7-2.6C483.7,431.1,470.1,431.1,456.4,431.1z"
		/>
	<path class="st0" d="M504,678.6c-17.4-0.4-30.3-1.6-43.1-4.1c-29.6-5.9-56.5-18-80.7-35.9c-2.7-2-4-4.4-3.8-7.8
		c1.4-28.2,11.1-53.1,29.6-74.5c12.4-14.4,27.5-25.2,45-32.4c18.8-7.8,38.3-10.6,58.6-8.4c23.7,2.6,44.7,11.5,63,26.5
		c15.7,12.9,27.4,28.8,35.1,47.6c5.9,14.4,8.6,29.5,8.9,45c0.1,4.6-1.4,7.7-5.3,10.2c-14.8,9.8-30.6,17.5-47.4,23.2
		c-11.1,3.7-22.4,6.7-34.1,8C519.7,677.3,509.6,678.1,504,678.6z M504.4,663.9c17.5-0.5,35.6-3.3,53.2-9.1
		c15-4.9,29.2-11.6,42.5-20.1c1.1-0.7,1.7-1.5,1.7-2.9c-0.3-13.5-3.2-26.4-8.5-38.8c-7.3-16.8-18.2-30.8-32.8-42
		c-17-13.1-36.3-20.2-57.7-21.6c-14.8-0.9-29.3,1.3-43.2,6.6c-18.4,7-33.6,18.1-45.8,33.5c-13,16.4-20.4,35-22.5,55.8
		c-0.2,2.3,0.2,3.6,2.1,5c21.4,15,44.9,25.1,70.4,30.2C476.9,663.1,490.1,664.2,504.4,663.9z"/>
	<path class="st0" d="M667.3,347.3c0,1.2,0,2.4,0,3.6c-0.1,4.1-2.9,7-6.9,7.1c-4,0.2-7.3-2.6-7.6-6.7c-0.2-2.7-0.2-5.4,0-8.1
		c0.2-4,3.5-6.9,7.5-6.8c3.9,0.1,6.8,3,7,7.1C667.4,344.8,667.3,346,667.3,347.3C667.3,347.3,667.3,347.3,667.3,347.3z"/>
</g>
</svg>
